POINT (53.9 10.85) "U-1007"
POINT (53.98 10.93) "U-1170"
POINT (53.98 10.93) "U-1196"
POINT (53.55 9.98) "U-2327"
POINT (57.48 11.4) "U-2359"
POINT (53.95 10.87) "U-2510"
POINT (53.95 10.87) "U-2526"
POINT (53.95 10.87) "U-2527"
POINT (53.95 10.87) "U-2528"
POINT (53.95 10.87) "U-2531"
POINT (53.95 10.87) "U-3002"
POINT (53.55 9.98) "U-3004"
POINT (53.95 10.87) "U-3016"
POINT (53.95 10.87) "U-3018"
POINT (53.95 10.87) "U-3019"
POINT (53.95 10.87) "U-3020"
POINT (53.95 10.87) "U-3021"
POINT (53.98 10.93) "U-316"
POINT (53.52 8.12) "U-3504"
POINT (53.55 10.0) "U-3506"
POINT (53.95 10.87) "U-3516"
POINT (53.95 10.87) "U-3517"
POINT (53.95 10.87) "U-3521"
POINT (53.95 10.87) "U-3522"