POINT (54.7 20.45) 19440929
POINT (49.32 -10.38) 19450408
POINT (60.4 5.3) 19450508
POINT (55.63 -7.43) 19450323
POINT (60.4 5.3) 19450508
POINT (60.4 5.3) 19450508
POINT (60.98 -4.82) 19441016
POINT (53.9 10.85) 19450502
POINT (56.23 10.85) 19450506
POINT (58.48 -4.7) 19450508
POINT (61.07 -11.5) 19410317
POINT (58.48 -4.7) 19450508
POINT (54.35 13.92) 19440317
POINT (55.28 -6.73) 19450204
POINT (55.15 19.18) 19440519
POINT (54.8 9.82) 19450505
POINT (56.07 -11.1) 19450429
POINT (49.93 -5.33) 19450227
POINT (63.45 10.42) 19450508
POINT (54.12 10.83) 19431022
POINT (56.55 -1.32) 19450109
POINT (50.67 -5.08) 19450314
POINT (60.4 5.3) 19450508
POINT (50.62 -2.43) 19450508
POINT (53.65 -5.05) 19450412
POINT (54.82 9.75) 19450505
POINT (48.55 -10.43) 19400701
POINT (54.32 10.17) 19440301
POINT (55.5 -8.0) 19401128
POINT (53.65 -5.38) 19450126
POINT (60.4 5.3) 19450508
POINT (60.43 5.27) 19450215
POINT (54.35 10.15) 19440916
POINT (52.35 -10.75) 19450423
POINT (54.8 9.82) 19450505
POINT (60.4 5.3) 19450508
POINT (58.48 -4.7) 19450508
POINT (13.17 -33.73) 19440319
POINT (14.25 -17.58) 19430602
POINT (65.4 11.98) 19441027
POINT (60.4 5.3) 19450508
POINT (11.6 -34.73) 19440930
POINT (50.13 -3.88) 19450415
POINT (63.45 10.42) 19450508
POINT (57.97 11.25) 19450409
POINT (46.58 -11.92) 19430802
POINT (46.77 -3.82) 19440818
POINT (53.43 14.58) 19440411
POINT (47.37 -22.67) 19430504
POINT (54.53 18.53) 19440801
POINT (54.8 9.82) 19450505
POINT (54.33 10.75) 19450508
POINT (53.87 8.72) 19450505
POINT (60.4 5.3) 19450508
POINT (58.48 -4.7) 19450508
POINT (61.77 -2.27) 19450329
POINT (48.2 -5.7) 19450430
POINT (59.42 10.5) 19450508
POINT (58.48 -4.7) 19450508
POINT (60.37 -33.2) 19410509
POINT (55.0 8.43) 19450508
POINT (27.25 -20.45) 19411004
POINT (53.55 9.85) 19450330
POINT (54.82 9.43) 19450505
POINT (54.82 9.43) 19450505
POINT (54.8 9.82) 19450505
POINT (58.13 8.02) 19450508
POINT (54.32 10.15) 19440724
POINT (68.43 17.4) 19450508
POINT (54.32 10.15) 19440828
POINT (53.53 9.85) 19450330
POINT (54.88 9.62) 19450504
POINT (49.97 -5.42) 19450329
POINT (45.0 -31.5) 19421006
POINT (53.98 10.93) 19450502
POINT (58.97 5.75) 19450508
POINT (52.4 -5.7) 19450127
POINT (39.7 -38.35) 19430807
POINT (30.82 -33.82) 19430612
POINT (50.15 -0.25) 19440703
POINT (54.32 10.15) 19450503
POINT (54.8 9.82) 19450505
POINT (53.87 8.72) 19450508
POINT (50.55 -0.93) 19450406
POINT (53.98 10.93) 19450502
POINT (53.55 8.55) 19450425
POINT (53.87 8.72) 19450508
POINT (49.95 -5.7) 19450121
POINT (44.98 -12.4) 19430624
POINT (54.32 10.13) 19441214
POINT (50.05 -2.02) 19441112
POINT (53.53 9.83) 19450503
POINT (60.4 5.3) 19450508
POINT (63.58 10.85) 19450508
POINT (54.8 9.82) 19450505
POINT (54.35 10.15) 19450503
POINT (57.4 -1.62) 19450414
POINT (54.8 9.82) 19450505
POINT (49.87 -6.12) 19450224
POINT (49.95 -5.78) 19441218
POINT (53.55 8.58) 19450505
POINT (54.47 9.85) 19450503
POINT (53.55 8.58) 19450505
POINT (54.32 10.13) 19450403
POINT (46.52 -5.48) 19440711
POINT (53.53 8.58) 19450415
POINT (18.13 -33.22) 19440215
POINT (63.0 -0.83) 19440624
POINT (59.5 -20.0) 19441028
POINT (54.32 10.13) 19450410
POINT (43.07 -70.72) 19450508
POINT (42.33 -51.65) 19440820
POINT (56.0 -10.5) 19400622
POINT (54.18 7.92) 19450505
POINT (58.48 -4.7) 19450508
POINT (53.53 8.58) 19450508
POINT (55.55 9.88) 19450505
POINT (54.83 9.82) 19450505
POINT (42.9 -30.42) 19450415
POINT (47.73 -3.37) 19440801
POINT (41.03 -15.65) 19430402
POINT (52.5 -45.33) 19430506
POINT (46.03 -11.38) 19430703
POINT (60.4 5.3) 19450508
POINT (60.4 5.3) 19450508
POINT (59.4 10.53) 19450217
POINT (55.6 -1.4) 19450416
POINT (54.32 10.15) 19450503
POINT (51.8 -7.12) 19450220
POINT (41.22 -8.72) 19450508
POINT (61.53 1.6) 19450217
POINT (49.77 -5.78) 19450227
POINT (36.47 -9.2) 19411215
POINT (-10.0 -35.58) 19430517
POINT (47.73 -3.37) 19440701
POINT (51.17 1.5) 19391008
POINT (60.4 5.3) 19450508
POINT (52.32 -5.38) 19450307
POINT (54.82 9.43) 19450505
POINT (54.82 9.43) 19450505
POINT (58.48 -4.7) 19450508
POINT (54.8 9.82) 19450505
POINT (60.4 5.3) 19450508
POINT (54.17 12.1) 19450501
POINT (37.17 -40.35) 19430312
POINT (34.2 -13.58) 19411217
POINT (55.63 -39.87) 19421104
POINT (37.83 23.58) 19420314
POINT (44.05 -8.08) 19430827
POINT (28.33 -13.28) 19430715
POINT (33.5 -22.87) 19420711
POINT (53.52 8.17) 19450505
POINT (36.07 -7.48) 19410618
POINT (53.52 8.17) 19450505
POINT (52.43 2.03) 19400531
POINT (54.47 9.83) 19450505
POINT (53.85 8.68) 19450505
POINT (53.85 8.68) 19450505
POINT (53.52 8.17) 19450505
POINT (53.52 8.17) 19450505
POINT (53.52 8.17) 19450505
POINT (54.18 7.92) 19450505
POINT (58.97 21.4) 19410810
POINT (54.18 7.92) 19450505
POINT (53.52 8.17) 19450505
POINT (56.63 -10.4) 19410602
POINT (53.52 8.17) 19450505
POINT (54.18 7.92) 19450505
POINT (53.52 8.17) 19450303
POINT (54.18 7.92) 19450505
POINT (53.52 8.17) 19450505
POINT (53.52 8.17) 19450505
POINT (12.83 -72.33) 19420713
POINT (34.0 -19.5) 19440703
POINT (55.55 9.88) 19450505
POINT (12.63 -54.65) 19430308
POINT (24.22 -82.05) 19420613
POINT (32.83 -67.47) 19420630
POINT (15.95 -68.5) 19430728
POINT (54.4 7.83) 19400130
POINT (33.9 -27.22) 19430714
POINT (-12.5 -35.58) 19430927
POINT (12.35 -59.48) 19420903
POINT (45.08 -15.0) 19430313
POINT (-1.97 -39.37) 19430106
POINT (47.0 -5.5) 19420927
POINT (28.67 -88.5) 19420730
POINT (27.78 -15.0) 19430406
POINT (-6.33 111.47) 19441006
POINT (-6.33 111.47) 19441006
POINT (60.9 -15.42) 19430327
POINT (51.15 1.47) 19391025
POINT (59.42 10.5) 19450508
POINT (47.65 -3.57) 19421009
POINT (26.48 -29.97) 19431213
POINT (33.67 -7.58) 19421116
POINT (43.58 -56.3) 19430427
POINT (47.88 -22.07) 19430417
POINT (23.35 -80.3) 19430515
POINT (-10.58 -23.25) 19440206
POINT (44.83 -0.6) 19440801
POINT (-33.47 17.08) 19421008
POINT (53.52 8.17) 19450206
POINT (44.0 -2.0) 19440823
POINT (1.23 103.92) 19450505
POINT (33.92 -20.58) 19430516
POINT (-4.95 112.87) 19450423
POINT (49.0 -45.5) 19421121
POINT (27.0 -37.1) 19430824
POINT (41.9 -31.82) 19430512
POINT (50.2 -36.58) 19430204
POINT (44.87 -0.55) 19440820
POINT (59.83 -34.72) 19430423
POINT (43.87 28.85) 19440825
POINT (47.32 -52.82) 19450501
POINT (56.75 -34.42) 19430423
POINT (53.1 -45.03) 19430506
POINT (47.0 -4.0) 19440423
POINT (59.0 -26.3) 19430624
POINT (-7.28 112.73) 19450505
POINT (-28.67 42.6) 19430820
POINT (-3.58 52.82) 19440812
POINT (-23.9 -42.9) 19430731
POINT (41.57 31.83) 19440911
POINT (54.25 5.12) 19400406
POINT (58.25 -25.42) 19430624
POINT (50.83 -40.83) 19430217
POINT (56.2 -39.87) 19430602
POINT (55.08 -42.42) 19430425
POINT (35.77 -6.03) 19411019
POINT (33.13 22.3) 19430217
POINT (47.08 -2.67) 19411130
POINT (63.98 -34.8) 19410911
POINT (35.85 -7.75) 19411207
POINT (52.0 -38.0) 19430507
POINT (41.17 30.78) 19440910
POINT (54.4 -39.62) 19420806
POINT (40.25 -19.3) 19431119
POINT (50.45 -0.22) 19440721
POINT (36.75 -22.83) 19420731
POINT (49.97 -3.5) 19440726
POINT (41.8 -66.63) 19420703
POINT (48.35 -19.42) 19421020
POINT (30.3 -42.83) 19430605
POINT (60.4 5.3) 19450508
POINT (-6.13 106.75) 19450505
POINT (54.65 19.9) 19440805
POINT (48.88 -33.5) 19431028
POINT (47.0 -18.0) 19430927
POINT (54.42 19.5) 19420902
POINT (38.8 14.17) 19440330
POINT (36.47 0.82) 19430113
POINT (48.62 -30.58) 19430222
POINT (44.82 -41.22) 19431106
POINT (64.08 -6.67) 19430430
POINT (60.4 5.32) 19441004
POINT (54.6 -36.42) 19430922
POINT (56.0 6.0) 19400327
POINT (43.07 5.9) 19440821
POINT (44.25 -20.63) 19440113
POINT (58.13 8.02) 19450508
POINT (58.97 5.75) 19450508
POINT (54.38 10.18) 19440726
POINT (58.97 5.75) 19450508
POINT (58.13 8.02) 19450508
POINT (56.45 -3.02) 19450508
POINT (53.55 9.98) 19450502
POINT (60.33 5.32) 19450508
POINT (58.97 5.75) 19450508
POINT (40.62 -13.68) 19430709
POINT (54.32 10.13) 19450503
POINT (54.0 18.0) 19441010
POINT (53.55 9.98) 19450503
POINT (54.75 10.17) 19450505
POINT (58.13 8.02) 19450508
POINT (58.13 8.02) 19450508
POINT (54.32 10.13) 19450508
POINT (58.13 8.02) 19450508
POINT (55.57 9.82) 19450504
POINT (54.75 10.17) 19450505
POINT (42.27 -59.82) 19440705
POINT (53.55 9.98) 19450330
POINT (53.85 8.68) 19450505
POINT (54.02 14.25) 19441226
POINT (54.75 10.17) 19450505
POINT (54.28 11.77) 19450218
POINT (58.97 5.75) 19450508
POINT (54.75 10.17) 19450505
POINT (54.75 10.17) 19450505
POINT (58.97 5.75) 19450508
POINT (54.75 10.17) 19450505
POINT (43.07 -70.72) 19450508
POINT (58.13 8.02) 19450508
POINT (54.82 9.43) 19450401
POINT (54.88 9.98) 19450505
POINT (58.13 8.02) 19450508
POINT (58.13 8.02) 19450508
POINT (54.4 10.2) 19450503
POINT (53.85 8.68) 19450505
POINT (54.75 10.17) 19450505
POINT (54.75 10.17) 19450505
POINT (57.48 11.4) 19450502
POINT (58.15 10.8) 19450414
POINT (54.75 10.17) 19450505
POINT (58.13 8.02) 19450508
POINT (54.75 10.17) 19450505
POINT (58.13 8.02) 19450508
POINT (54.75 10.17) 19450505
POINT (56.85 11.82) 19450508
POINT (54.75 10.17) 19450505
POINT (55.0 11.0) 19450505
POINT (54.75 10.17) 19450505
POINT (54.75 10.17) 19450505
POINT (54.62 10.05) 19450505
POINT (53.55 9.98) 19450503
POINT (54.32 10.15) 19450404
POINT (49.75 -16.12) 19440209
POINT (54.32 10.15) 19440805
POINT (41.18 30.0) 19440910
POINT (61.5 4.5) 19440515
POINT (63.6 1.7) 19440518
POINT (52.03 -5.77) 19450405
POINT (47.1 -6.67) 19440708
POINT (58.48 -4.7) 19450508
POINT (60.4 5.3) 19450508
POINT (53.67 -4.88) 19450317
POINT (49.9 -5.82) 19440901
POINT (47.72 -26.62) 19450116
POINT (50.58 -2.43) 19450508
POINT (44.2 28.68) 19440825
POINT (53.55 9.98) 19450503
POINT (59.42 10.5) 19450508
POINT (55.15 11.13) 19450504
POINT (53.55 9.98) 19450503
POINT (53.55 9.98) 19450503
POINT (60.33 5.32) 19450508
POINT (54.75 10.17) 19450505
POINT (54.32 10.13) 19450503
POINT (53.55 9.98) 19450408
POINT (60.47 28.42) 19440730
POINT (53.95 10.87) 19450502
POINT (60.33 5.32) 19450508
POINT (54.47 9.83) 19450503
POINT (59.42 10.5) 19450508
POINT (53.55 9.98) 19450408
POINT (53.55 9.98) 19450311
POINT (54.32 10.13) 19450409
POINT (54.75 10.17) 19450505
POINT (59.42 10.5) 19450508
POINT (54.32 10.13) 19450503
POINT (56.62 11.85) 19450419
POINT (54.32 10.13) 19450503
POINT (54.82 9.83) 19450503
POINT (54.75 10.17) 19450505
POINT (53.55 9.98) 19450117
POINT (54.43 11.65) 19450503
POINT (54.75 10.17) 19450505
POINT (53.95 10.87) 19450502
POINT (53.95 10.87) 19450502
POINT (53.95 10.87) 19450502
POINT (58.13 8.02) 19450508
POINT (47.0 -18.23) 19420414
POINT (53.95 10.87) 19450502
POINT (53.95 10.87) 19450503
POINT (54.43 11.57) 19450503
POINT (53.95 10.87) 19450503
POINT (53.95 10.87) 19450503
POINT (54.88 10.25) 19450508
POINT (54.32 10.13) 19450503
POINT (67.0 -23.0) 19420925
POINT (55.55 8.6) 19450504
POINT (54.75 10.17) 19450505
POINT (54.32 10.13) 19450403
POINT (54.32 10.13) 19450503
POINT (56.1 10.45) 19450505
POINT (54.32 10.13) 19450503
POINT (54.32 10.13) 19450503
POINT (54.32 10.13) 19450503
POINT (58.75 -33.03) 19421208
POINT (54.82 9.47) 19450505
POINT (54.35 10.15) 19450503
POINT (58.48 -4.7) 19450508
POINT (60.4 5.3) 19441023
POINT (47.32 -26.0) 19440224
POINT (55.3 -27.82) 19430520
POINT (37.33 3.08) 19421115
POINT (54.23 5.12) 19400802
POINT (51.48 -9.1) 19450312
POINT (59.83 -9.47) 19420915
POINT (54.32 10.15) 19450402
POINT (45.67 -3.0) 19440120
POINT (48.52 -22.08) 19440219
POINT (56.58 -22.82) 19430203
POINT (45.47 -10.33) 19430515
POINT (54.8 9.82) 19450505
POINT (47.05 -5.93) 19430219
POINT (49.93 -2.77) 19440625
POINT (48.05 -11.5) 19400701
POINT (46.32 -2.93) 19440813
POINT (53.25 -15.87) 19440128
POINT (54.75 18.83) 19421112
POINT (59.42 -24.55) 19430519
POINT (57.23 -27.83) 19431023
POINT (50.6 0.07) 19450310
POINT (54.12 10.83) 19440929
POINT (73.4 15.53) 19440501
POINT (68.47 17.4) 19450508
POINT (60.67 -26.5) 19431004
POINT (58.58 -9.03) 19390920
POINT (49.18 -27.53) 19431116
POINT (58.13 8.02) 19450508
POINT (55.47 -31.95) 19431029
POINT (60.75 -12.83) 19440211
POINT (55.07 -30.38) 19431221
POINT (50.22 -12.8) 19450415
POINT (69.48 33.62) 19450429
POINT (53.83 8.83) 19450508
POINT (73.73 27.2) 19440403
POINT (73.53 0.47) 19440531
POINT (54.12 10.83) 19440317
POINT (54.82 9.43) 19450505
POINT (53.87 8.72) 19450505
POINT (62.62 0.95) 19440527
POINT (58.48 -4.7) 19450508
POINT (68.47 17.43) 19450508
POINT (68.47 17.43) 19450508
POINT (55.5 -7.0) 19450312
POINT (58.73 -4.48) 19441206
POINT (60.4 5.3) 19450508
POINT (58.13 8.02) 19450508
POINT (54.82 9.43) 19440417
POINT (54.8 19.92) 19440408
POINT (53.55 8.5) 19450503
POINT (53.95 10.87) 19450502
POINT (54.32 10.13) 19450404
POINT (53.55 9.98) 19450502
POINT (54.32 10.13) 19450503
POINT (53.52 8.12) 19450501
POINT (54.32 10.13) 19450508
POINT (53.55 8.5) 19450501
POINT (36.48 -8.33) 19450222
POINT (54.32 10.13) 19450503
POINT (53.95 10.87) 19450503
POINT (53.95 10.87) 19450503
POINT (53.95 10.87) 19450503
POINT (54.1 10.82) 19450503
POINT (54.75 10.17) 19450505
POINT (53.95 10.87) 19450502
POINT (59.42 10.5) 19450508
POINT (53.95 10.87) 19450502
POINT (53.95 10.87) 19450502
POINT (41.45 7.07) 19430121
POINT (53.95 10.87) 19450502
POINT (53.95 10.87) 19450502
POINT (54.75 10.17) 19450505
POINT (53.95 10.87) 19450503
POINT (54.1 10.82) 19450503
POINT (53.95 10.87) 19450503
POINT (53.95 10.87) 19450503
POINT (53.95 10.87) 19450503
POINT (54.32 10.13) 19450503
POINT (54.32 10.13) 19450503
POINT (45.08 -35.18) 19440406
POINT (54.5 10.1) 19450508
POINT (54.32 10.13) 19450503
POINT (54.43 11.53) 19450503
POINT (58.97 5.75) 19450508
POINT (53.95 10.87) 19450503
POINT (54.32 10.13) 19450503
POINT (54.32 10.13) 19450503
POINT (42.83 6.0) 19430521
POINT (54.32 10.13) 19450503
POINT (59.42 10.5) 19450508
POINT (54.75 10.17) 19450505
POINT (54.83 -37.33) 19430528
POINT (49.0 -18.0) 19440116
POINT (46.32 -20.73) 19431031
POINT (69.4 33.73) 19450429
POINT (64.47 -3.15) 19430604
POINT (58.15 -2.38) 19450216
POINT (54.82 9.43) 19450123
POINT (63.45 10.42) 19450508
POINT (52.15 -19.12) 19440422
POINT (68.43 17.4) 19450508
POINT (68.43 17.4) 19450508
POINT (73.67 27.33) 19440130
POINT (63.45 10.42) 19450508
POINT (53.98 10.93) 19450502
POINT (62.05 1.75) 19440626
POINT (68.47 17.43) 19450508
POINT (57.67 4.43) 19440715
POINT (56.43 -10.3) 19401102
POINT (61.53 1.88) 19450508
POINT (50.0 -12.95) 19450402
POINT (50.42 -2.43) 19441229
POINT (53.5 8.5) 19450505
POINT (60.4 5.3) 19450508
POINT (49.8 -5.2) 19450430
POINT (47.85 -6.77) 19450430
POINT (61.35 2.0) 19450203
POINT (60.4 5.3) 19450508
POINT (55.62 -12.32) 19401030
POINT (37.08 2.45) 19421117
POINT (45.13 -9.55) 19430429
POINT (49.65 -7.47) 19440731
POINT (58.27 -28.33) 19430614
POINT (62.8 -0.2) 19420803
POINT (62.72 -27.28) 19431005
POINT (63.0 -12.0) 19430103
POINT (57.0 -30.0) 19430920
POINT (53.52 8.17) 19450223
POINT (55.38 -5.13) 19400212
POINT (35.82 -5.23) 19431102
POINT (58.57 -25.5) 19430919
POINT (60.38 -29.33) 19440417
POINT (38.12 9.68) 19440310
POINT (74.9 15.43) 19440822
POINT (54.33 12.07) 19431223
POINT (54.62 18.83) 19430920
POINT (68.6 8.55) 19440717
POINT (53.53 9.85) 19450330
POINT (54.8 9.82) 19450505
POINT (55.72 21.1) 19430805
POINT (53.55 10.0) 19450503
POINT (57.65 11.73) 19450508
POINT (53.52 8.12) 19450502
POINT (54.32 10.13) 19450403
POINT (53.55 10.0) 19450502
POINT (53.95 10.87) 19450503
POINT (53.52 8.12) 19450304
POINT (53.53 9.85) 19450330
POINT (54.75 10.17) 19450505
POINT (53.95 10.87) 19450503
POINT (54.32 10.13) 19450408
POINT (53.95 10.87) 19450503
POINT (60.33 5.32) 19450508
POINT (59.42 10.5) 19450508
POINT (53.95 10.87) 19450502
POINT (53.95 10.87) 19450502
POINT (54.32 10.13) 19450503
POINT (54.18 12.08) 19450302
POINT (54.88 9.83) 19450505
POINT (54.47 10.2) 19450131
POINT (53.95 10.87) 19450502
POINT (53.95 10.87) 19450502
POINT (57.87 10.82) 19450506
POINT (54.75 10.17) 19450505
POINT (54.32 10.13) 19450430
POINT (54.75 10.17) 19450505
POINT (54.75 10.17) 19450505
POINT (34.22 -76.57) 19420509
POINT (54.32 10.13) 19450503
POINT (53.9 -29.5) 19421016
POINT (72.82 30.68) 19440824
POINT (73.0 13.0) 19440401
POINT (45.5 -25.67) 19421227
POINT (57.17 -15.67) 19421226
POINT (45.77 -23.27) 19440301
POINT (18.1 -75.0) 19430726
POINT (60.88 2.78) 19391129
POINT (73.47 13.07) 19440402
POINT (68.58 6.0) 19440717
POINT (75.85 89.45) 19440905
POINT (68.43 17.4) 19450508
POINT (45.55 -6.08) 19440129
POINT (70.72 8.12) 19441213
POINT (72.17 14.75) 19440305
POINT (54.6 18.87) 19450315
POINT (54.18 7.9) 19450505
POINT (58.13 8.02) 19450508
POINT (57.0 5.33) 19391204
POINT (54.8 9.82) 19450505
POINT (37.82 5.65) 19440504
POINT (32.47 34.62) 19420804
POINT (48.17 -5.52) 19440608
POINT (37.83 16.0) 19420112
POINT (36.65 14.3) 19430725
POINT (45.5 -3.5) 19430407
POINT (49.65 -20.17) 19440117
POINT (47.67 -28.45) 19431020
POINT (57.18 -30.95) 19420808
POINT (54.92 9.78) 19450505
POINT (43.12 5.92) 19440311
POINT (51.5 -36.0) 19430510
POINT (53.52 8.17) 19450320
POINT (47.4 -12.17) 19430801
POINT (54.3 -26.25) 19430319
POINT (46.27 -2.75) 19440811
POINT (48.85 -22.73) 19440219
POINT (69.68 33.2) 19441209
POINT (57.6 -31.33) 19430620
POINT (60.85 -28.43) 19431004
POINT (53.57 8.53) 19450505
POINT (49.87 -0.8) 19440705
POINT (45.75 -9.63) 19431213
POINT (35.92 -5.68) 19440316
POINT (54.87 9.62) 19450505
POINT (69.78 4.17) 19440902
POINT (57.5 -26.0) 19450411
POINT (54.8 9.82) 19450505
POINT (58.0 6.0) 19450417
POINT (49.93 -5.37) 19450326
POINT (58.53 -11.82) 19390914
POINT (54.1 10.82) 19440801
POINT (50.55 -5.18) 19441215
POINT (50.5 -19.58) 19410803
POINT (48.93 -29.68) 19431013
POINT (13.7 -17.6) 19430818
POINT (45.88 -9.42) 19430728
POINT (49.0 -31.23) 19431101
POINT (48.53 -23.6) 19440218
POINT (36.45 24.55) 19440919
POINT (67.67 -18.53) 19421105
POINT (37.2 4.0) 19430712
POINT (51.12 1.8) 19391013
POINT (43.12 5.92) 19440311
POINT (36.0 -9.58) 19421113
POINT (63.92 0.4) 19421022
POINT (50.35 -0.02) 19440820
POINT (36.52 0.67) 19430525
POINT (48.37 -4.48) 19440714
POINT (54.97 19.72) 19441212
POINT (63.33 -10.5) 19430611
POINT (47.0 -14.0) 19430530
POINT (56.52 -27.08) 19431008
POINT (49.33 -10.07) 19400205
POINT (48.0 -21.0) 19431020
POINT (43.12 5.92) 19440429
POINT (43.22 -28.97) 19431004
POINT (63.1 2.08) 19440617
POINT (50.0 -18.23) 19440211
POINT (69.65 35.83) 19450217
POINT (46.78 -10.7) 19440108
POINT (68.43 17.4) 19450508
POINT (54.32 9.67) 19450503
POINT (53.52 8.13) 19450330
POINT (49.2 -16.0) 19391013
POINT (53.12 8.75) 19450330
POINT (37.38 0.58) 19431021
POINT (51.58 -28.33) 19430311
POINT (36.22 -4.7) 19411116
POINT (36.25 -15.8) 19411218
POINT (39.33 -13.0) 19430709
POINT (43.82 -15.93) 19430526
POINT (60.4 5.3) 19441005
POINT (52.0 -45.17) 19430506
POINT (43.53 -13.33) 19430504
POINT (34.95 -35.18) 19430730
POINT (45.63 -13.07) 19430531
POINT (49.62 -3.68) 19440630
POINT (37.53 -11.93) 19430212
POINT (36.92 2.42) 19430223
POINT (51.23 -29.3) 19430311
POINT (47.35 -5.83) 19440824
POINT (54.45 18.92) 19420921
POINT (35.5 -11.92) 19430507
POINT (46.37 -19.58) 19440414
POINT (45.0 -11.98) 19430624
POINT (54.23 5.12) 19400313
POINT (41.18 12.45) 19440310
POINT (35.92 -6.13) 19411221
POINT (61.5 -15.5) 19410825
POINT (38.22 16.6) 19440521
POINT (45.6 -10.38) 19430801
POINT (44.3 9.05) 19440405
POINT (46.65 -26.9) 19430512
POINT (75.08 43.25) 19420916
POINT (36.42 12.65) 19430822
POINT (45.88 -10.63) 19430724
POINT (50.97 -12.95) 19391014
POINT (43.3 -28.97) 19431004
POINT (45.55 -10.8) 19430730
POINT (45.55 -10.97) 19430730
POINT (45.95 -11.67) 19430516
POINT (61.42 -14.67) 19420820
POINT (44.8 -8.97) 19430502
POINT (43.08 5.93) 19440819
POINT (62.42 -14.87) 19430525
POINT (12.33 -20.12) 19430811
POINT (62.2 -16.67) 19430325
POINT (55.72 10.18) 19450505
POINT (54.8 9.82) 19450505
POINT (54.75 10.17) 19450505
POINT (54.88 9.83) 19450505
POINT (54.32 10.13) 19450503
POINT (58.13 8.02) 19450508
POINT (54.75 10.17) 19450505
POINT (54.32 10.13) 19450504
POINT (58.33 -29.33) 19431016
POINT (54.75 10.17) 19450505
POINT (54.32 10.13) 19450504
POINT (54.32 10.13) 19450503
POINT (43.12 5.92) 19440806
POINT (73.08 26.67) 19440304
POINT (49.48 -21.37) 19440506
POINT (54.35 10.15) 19450503
POINT (65.13 4.88) 19440525
POINT (63.98 1.62) 19440603
POINT (63.45 -0.83) 19440630
POINT (59.33 23.17) 19441127
POINT (60.0 -13.0) 19410307
POINT (50.37 -1.73) 19450129
POINT (68.43 17.4) 19450508
POINT (60.3 -4.87) 19441125
POINT (63.45 10.42) 19450508
POINT (55.75 -11.68) 19440909
POINT (36.13 -5.37) 19450508
POINT (60.73 4.65) 19450412
POINT (27.25 -38.08) 19430713
POINT (17.9 -38.08) 19440426
POINT (61.18 -14.63) 19430804
POINT (54.12 10.83) 19431031
POINT (42.78 -40.13) 19440612
POINT (68.88 16.98) 19400415
POINT (54.53 18.53) 19440731
POINT (62.83 -37.83) 19410910
POINT (46.17 -6.67) 19420706
POINT (45.83 -48.83) 19420315
POINT (45.55 -10.93) 19430730
POINT (21.5 -19.33) 19440604
POINT (42.5 -16.5) 19430712
POINT (-1.63 -39.87) 19430113
POINT (46.0 -7.5) 19431112
POINT (34.03 -26.02) 19430715
POINT (54.23 5.12) 19400406
POINT (47.27 -2.2) 19450508
POINT (34.23 132.55) 19430901
POINT (6.83 -52.42) 19421002
POINT (-27.28 -47.53) 19430719
POINT (43.62 -8.98) 19430708
POINT (34.58 -19.3) 19440409
POINT (58.48 -4.7) 19450508
POINT (46.27 -17.15) 19421121
POINT (43.43 -38.38) 19450422
POINT (47.0 -4.0) 19430131
POINT (47.1 -4.85) 19400820
POINT (47.78 -49.83) 19421030
POINT (37.72 -73.27) 19430602
POINT (31.45 -26.37) 19430223
POINT (42.05 -18.03) 19430825
POINT (30.25 -18.22) 19430322
POINT (41.48 -38.92) 19430811
POINT (47.7 -3.38) 19430414
POINT (35.42 -27.93) 19430723
POINT (46.92 -14.73) 19430511
POINT (55.75 -31.15) 19430215
POINT (54.12 10.83) 19431022
POINT (-38.0 -57.53) 19450508
POINT (52.8 -45.3) 19430506
POINT (58.48 -4.7) 19450508
POINT (25.47 56.83) 19431016
POINT (56.75 11.87) 19450505
POINT (43.63 -9.22) 19430705
POINT (43.83 -19.65) 19431120
POINT (-7.22 115.28) 19441109
POINT (45.67 -19.58) 19431121
POINT (60.4 5.3) 19450508
POINT (60.53 -6.23) 19400224
POINT (58.63 -31.93) 19431017
POINT (36.13 -5.37) 19450508
POINT (39.58 -19.85) 19431128
POINT (25.57 -21.6) 19440702
POINT (40.5 -37.33) 19440116
POINT (58.28 -13.37) 19440210
POINT (43.88 -40.12) 19450424
POINT (53.43 14.58) 19441231
POINT (42.32 -61.75) 19450419
POINT (31.22 -23.05) 19440529
POINT (55.0 5.0) 19400213
POINT (40.15 -69.73) 19440416
POINT (62.62 -16.78) 19410323
POINT (49.0 -16.0) 19430120
POINT (53.52 8.17) 19450505
POINT (60.4 -29.0) 19410627
POINT (35.52 23.32) 19411216
POINT (45.17 -9.7) 19430720
POINT (32.5 33.0) 19421030
POINT (48.62 -7.8) 19400130
POINT (54.32 10.15) 19450503
POINT (38.27 15.65) 19430712
POINT (32.95 20.9) 19430219
POINT (46.58 -10.67) 19430531
POINT (44.28 -10.42) 19430614
POINT (37.98 23.57) 19440924
POINT (41.2 -9.52) 19431024
POINT (44.03 -20.17) 19411221
POINT (32.7 24.88) 19420528
POINT (50.67 -35.35) 19430522
POINT (54.32 10.17) 19450403
POINT (62.25 -18.58) 19410827
POINT (52.68 -14.45) 19440128
POINT (11.58 -54.08) 19430803
POINT (37.0 1.0) 19420502
POINT (38.2 -17.38) 19411219
POINT (46.3 -27.57) 19440313
POINT (34.85 -75.37) 19420715
POINT (32.67 25.8) 19420115
POINT (46.0 -4.0) 19420806
POINT (56.17 11.07) 19450505
POINT (55.67 20.67) 19411111
POINT (55.67 20.67) 19411111
POINT (38.4 -28.5) 19420202
POINT (58.87 -21.7) 19421005
POINT (55.3 16.88) 19411115
POINT (49.23 -31.92) 19431031
POINT (70.0 34.0) 19420330
POINT (43.12 5.92) 19440705
POINT (47.35 -21.65) 19420327
POINT (49.98 -36.6) 19420731
POINT (75.67 20.53) 19420914
POINT (3.37 -48.63) 19430709
POINT (-8.6 -34.57) 19430730
POINT (50.33 -17.48) 19440131
POINT (37.63 5.97) 19431213
POINT (36.03 -10.47) 19430605
POINT (36.27 0.5) 19421114
POINT (37.98 23.57) 19440924
POINT (56.83 -28.08) 19421012
POINT (-4.08 -33.38) 19430723
POINT (46.12 -17.67) 19421024
POINT (54.67 19.75) 19430319
POINT (40.52 -22.12) 19431125
POINT (70.43 12.67) 19440225
POINT (36.83 0.0) 19430419
POINT (48.95 -23.75) 19440219
POINT (-4.5 -21.33) 19430811
POINT (36.33 -1.02) 19421114
POINT (47.73 -33.72) 19430222
POINT (45.03 -9.23) 19430713
POINT (46.5 -3.13) 19440810
POINT (54.93 -28.18) 19430206
POINT (53.52 8.17) 19450228
POINT (55.75 -24.55) 19431008
POINT (57.42 -35.32) 19421208
POINT (54.17 12.1) 19450501
POINT (35.53 -28.6) 19430723
POINT (46.7 -11.05) 19430729
POINT (12.63 -64.25) 19430807
POINT (36.77 0.87) 19440517
POINT (35.22 -3.35) 19430912
POINT (47.37 -4.65) 19440814
POINT (58.68 -22.97) 19421005
POINT (53.52 8.17) 19450327
POINT (39.3 -11.28) 19430213
POINT (45.87 -2.6) 19440818
POINT (63.45 10.42) 19430724
POINT (48.13 -29.62) 19430221
POINT (55.7 -26.28) 19430207
POINT (52.58 -20.32) 19440310
POINT (58.67 -20.0) 19421214
POINT (59.23 -22.82) 19421027
POINT (44.18 -8.75) 19430703
POINT (48.57 -5.38) 19440607
POINT (53.52 8.17) 19450320
POINT (52.52 -44.83) 19430506
POINT (58.22 -32.48) 19431017
POINT (58.03 -28.7) 19430406
POINT (58.35 -31.0) 19430308
POINT (40.22 -19.4) 19430830
POINT (58.33 -31.87) 19430405
POINT (55.83 -10.52) 19450421
POINT (58.97 5.75) 19450508
POINT (54.2 -44.08) 19430505
POINT (76.67 69.67) 19430828
POINT (58.67 -0.17) 19400225
POINT (60.53 -31.08) 19430514
POINT (50.42 -18.82) 19440119
POINT (43.12 5.92) 19440705
POINT (56.23 -26.92) 19431008
POINT (69.63 -5.67) 19430407
POINT (49.5 -22.5) 19431212
POINT (62.17 -14.5) 19430517
POINT (64.0 -1.5) 19430728
POINT (45.15 -19.75) 19431122
POINT (55.25 17.25) 19430224
POINT (68.48 17.5) 19400413
POINT (49.85 -5.5) 19450107
POINT (59.87 -18.6) 19410629
POINT (31.92 25.22) 19420602
POINT (53.77 -24.58) 19440315
POINT (12.0 -79.93) 19420822
POINT (73.0 21.0) 19420324
POINT (46.25 -53.25) 19420301
POINT (58.9 -42.55) 19430517
POINT (50.53 -46.53) 19421030
POINT (43.53 -13.33) 19430504
POINT (59.85 -15.5) 19410428
POINT (36.12 -1.0) 19421112
POINT (53.7 -35.93) 19421015
POINT (3.93 -48.77) 19430721
POINT (46.83 -10.0) 19430508
POINT (40.2 -37.48) 19430809
POINT (47.0 -9.0) 19430322
POINT (53.93 -17.27) 19440210
POINT (46.1 -1.58) 19440826
POINT (68.43 17.4) 19450508
POINT (45.55 -3.83) 19430830
POINT (17.28 -32.48) 19440506
POINT (54.83 19.25) 19430820
POINT (50.38 0.1) 19440804
POINT (50.05 -2.5) 19440718
POINT (59.28 5.95) 19441024
POINT (70.53 4.62) 19440502
POINT (62.45 3.07) 19440524
POINT (59.62 23.2) 19450212
POINT (53.53 9.85) 19450409
POINT (50.53 -0.38) 19440706
POINT (59.5 23.5) 19450109
POINT (30.08 -44.28) 19430716
POINT (55.55 9.88) 19450505
POINT (49.87 -6.63) 19450311
POINT (53.53 9.95) 19450311
POINT (55.0 -12.5) 19450220
POINT (33.4 -18.98) 19440410
POINT (50.6 -41.12) 19430217
POINT (54.53 18.53) 19440807
POINT (34.83 -74.92) 19420707
POINT (56.57 6.27) 19420331
POINT (68.0 11.0) 19440916
POINT (53.17 8.63) 19450324
POINT (46.7 -11.12) 19420903
POINT (46.25 -10.42) 19430802
POINT (40.52 -20.28) 19431109
POINT (53.52 8.17) 19450505
POINT (49.25 -23.23) 19440219
POINT (60.25 -14.0) 19410307
POINT (61.42 -19.8) 19430424
POINT (68.72 16.57) 19450504
POINT (58.13 8.02) 19450508
POINT (69.35 3.5) 19440224
POINT (55.95 -1.95) 19450314
POINT (62.92 -2.98) 19440613
POINT (68.43 17.4) 19450508
POINT (54.82 9.45) 19450505
POINT (55.35 15.4) 19431118
POINT (55.55 -11.03) 19440626
POINT (53.52 8.17) 19450227
POINT (54.18 7.9) 19450505
POINT (54.8 9.82) 19450505
POINT (57.15 -6.92) 19450327
POINT (53.13 8.77) 19450330
POINT (35.9 -5.75) 19440515
POINT (35.9 -5.87) 19431031
POINT (54.8 9.82) 19450505
POINT (49.72 -16.38) 19440209
POINT (59.47 10.48) 19441228
POINT (47.32 -4.27) 19440806
POINT (68.17 15.47) 19441219
POINT (54.53 18.6) 19440214
POINT (53.32 7.23) 19450508
POINT (36.12 -0.83) 19431216
POINT (48.45 -5.78) 19440608
POINT (50.03 -0.6) 19440815
POINT (68.4 9.85) 19440718
POINT (64.0 7.0) 19440822
POINT (52.02 -22.62) 19440306
POINT (59.63 23.17) 19450131
POINT (54.8 9.82) 19450505
POINT (53.53 9.85) 19450409
POINT (54.35 9.77) 19450505
POINT (54.32 10.15) 19450404
POINT (37.2 0.02) 19420502
POINT (54.83 9.5) 19450505
POINT (45.23 -12.37) 19420717
POINT (51.67 -29.82) 19430523
POINT (48.62 -22.65) 19430513
POINT (43.03 -64.87) 19420731
POINT (39.97 1.68) 19430528
POINT (57.68 -31.5) 19420901
POINT (50.55 -18.05) 19440108
POINT (54.32 10.15) 19450316
POINT (15.97 -73.73) 19430715
POINT (31.83 26.67) 19411228
POINT (42.23 -8.75) 19430908
POINT (35.92 -5.75) 19440224
POINT (49.03 -16.97) 19440208
POINT (54.7 20.45) 19450129
POINT (58.48 -4.7) 19450508
POINT (52.5 -28.47) 19440506
POINT (46.17 -1.23) 19440824
POINT (49.05 -3.22) 19440618
POINT (54.43 19.13) 19431120
POINT (58.58 -20.33) 19410405
POINT (69.28 16.47) 19441111
POINT (51.27 -8.08) 19441217
POINT (63.58 10.85) 19450508
POINT (49.97 -11.85) 19450408
POINT (63.45 10.42) 19450508
POINT (50.58 -2.43) 19450508
POINT (53.52 8.13) 19441015
POINT (60.4 5.3) 19450508
POINT (53.87 8.72) 19450505
POINT (38.55 0.23) 19430329
POINT (54.63 19.9) 19450416
POINT (54.32 9.72) 19450504
POINT (54.32 9.72) 19450504
POINT (54.75 10.17) 19450505
POINT (54.32 10.13) 19450503
POINT (32.25 25.32) 19411223
POINT (54.87 19.5) 19440218
POINT (16.7 -30.47) 19440317
POINT (58.48 -4.7) 19450508
POINT (54.12 14.58) 19440427
POINT (57.97 11.25) 19450409
POINT (43.07 -70.73) 19450508
POINT (56.13 10.22) 19450506
POINT (54.67 19.5) 19441128
POINT (44.87 13.85) 19440109
POINT (48.52 -5.18) 19440610
POINT (53.53 8.58) 19450505
POINT (58.48 -4.7) 19450508
POINT (58.48 -4.7) 19450508
POINT (54.83 9.47) 19450505
POINT (53.53 8.58) 19450505
POINT (44.17 -23.87) 19420206
POINT (37.17 0.08) 19430304
POINT (59.95 -31.1) 19431017
POINT (43.7 -42.13) 19431106
POINT (57.55 11.4) 19450409
POINT (58.5 -27.27) 19431016
POINT (48.33 -20.55) 19440310
POINT (46.07 -9.33) 19440504
POINT (28.32 -37.97) 19430827
POINT (-10.15 -18.0) 19431105
POINT (-6.5 -5.67) 19431125
POINT (27.92 -68.5) 19430807
POINT (32.9 -37.02) 19431220
POINT (9.57 50.8) 19440503
POINT (41.22 -71.45) 19450506
POINT (54.03 14.27) 19440204
POINT (59.5 -26.0) 19440911
POINT (40.3 -62.37) 19440407
POINT (36.0 -74.0) 19450430
POINT (38.8 -75.12) 19450508
POINT (5.77 100.07) 19440923
POINT (35.92 -75.22) 19420414
POINT (-25.45 -5.5) 19440615
POINT (63.6 10.38) 19450506
POINT (1.25 103.87) 19450505
POINT (-10.75 -25.5) 19440929
POINT (60.77 4.58) 19450209
POINT (64.0 8.0) 19440919
POINT (43.3 -61.13) 19450318
POINT (61.95 2.37) 19440919
POINT (60.33 5.32) 19450505
POINT (39.55 -73.03) 19450211
POINT (40.7 -18.9) 19431129
POINT (53.07 8.83) 19450330
POINT (43.3 -36.47) 19440926
POINT (43.07 -70.72) 19450508
POINT (59.42 10.5) 19450508
POINT (60.33 5.32) 19450508
POINT (54.48 9.98) 19450503
POINT (46.42 -36.63) 19441227
POINT (47.58 -10.55) 19450410
POINT (36.57 -74.0) 19450430
POINT (41.6 -13.52) 19430304
POINT (47.3 -30.43) 19450416
POINT (43.3 -47.73) 19450506
POINT (53.85 8.68) 19450505
POINT (43.53 -65.2) 19450508
POINT (75.07 4.82) 19420912
POINT (46.5 -25.67) 19430512
POINT (53.52 8.17) 19450331
POINT (58.97 5.75) 19450508
POINT (54.8 9.82) 19450505
POINT (54.47 9.85) 19450504
POINT (58.57 -5.77) 19450327
POINT (60.4 5.3) 19450508
POINT (48.2 -40.93) 19420724
POINT (49.75 -26.33) 19440226
POINT (74.75 13.83) 19440924
POINT (54.35 10.15) 19450503
POINT (54.52 10.3) 19450209
POINT (54.35 10.15) 19450503
POINT (58.0 6.0) 19440825
POINT (60.4 5.3) 19450508
POINT (49.9 -4.75) 19450224
POINT (60.4 5.3) 19450508
POINT (54.25 12.07) 19450501
POINT (60.4 5.32) 19441012
POINT (60.4 5.3) 19450508
POINT (36.67 -15.87) 19420115
POINT (17.67 -74.5) 19420828
POINT (37.67 -15.5) 19430707
POINT (43.12 5.92) 19440712
POINT (63.45 10.42) 19450508
POINT (54.9 -34.32) 19430519
POINT (45.22 -8.5) 19440607
POINT (58.48 -4.7) 19450508
POINT (68.43 17.4) 19441021
POINT (54.35 10.17) 19450503
POINT (69.33 -0.33) 19440502
POINT (36.4 -3.33) 19411128
POINT (37.33 1.58) 19440519
POINT (64.52 -3.32) 19440329
POINT (45.72 -19.95) 19440408
POINT (39.6 -9.08) 19450508
POINT (57.45 -28.28) 19431016
POINT (58.32 -5.52) 19450330
POINT (43.77 -7.63) 19431110
POINT (43.08 5.93) 19440712
POINT (68.43 17.4) 19450508
POINT (43.12 5.92) 19440806
POINT (53.52 8.17) 19450215
POINT (45.25 -4.17) 19440608
POINT (49.02 -5.58) 19440624
POINT (60.5 -20.0) 19431215
POINT (70.07 5.8) 19440306
POINT (59.13 5.38) 19440419
POINT (59.42 10.5) 19450508
POINT (46.83 -2.7) 19440325
POINT (-38.0 -57.53) 19450508
POINT (63.58 10.85) 19450508
POINT (54.6 8.37) 19450524
POINT (33.0 34.0) 19430616
POINT (63.12 0.43) 19440611
POINT (46.15 -1.58) 19440812
POINT (53.53 9.85) 19450409
POINT (54.93 17.23) 19430908
POINT (50.07 -0.53) 19440802
POINT (58.13 8.02) 19441115
POINT (51.5 -20.0) 19440410
POINT (68.02 5.13) 19440615
POINT (50.02 -2.98) 19440622
POINT (61.6 -1.58) 19450214
POINT (36.15 -7.7) 19421115
POINT (65.08 7.47) 19440525
POINT (60.4 5.3) 19450508
POINT (68.43 17.4) 19450508
POINT (60.4 5.3) 19441004
POINT (63.45 10.42) 19450508
POINT (63.45 10.42) 19450508
POINT (68.43 17.4) 19450508
POINT (60.4 5.3) 19440627
POINT (54.83 9.47) 19450505
POINT (61.0 -11.8) 19410317
POINT (44.17 28.68) 19440820