POINT (60.4 5.3) 
POINT (60.4 5.3) 
POINT (60.4 5.3) 
POINT (58.48 -4.7) 
POINT (58.48 -4.7) 
POINT (63.45 10.42) 
POINT (60.4 5.3) 
POINT (50.62 -2.43) 
POINT (60.4 5.3) 
POINT (60.4 5.3) 
POINT (58.48 -4.7) 
POINT (60.4 5.3) 
POINT (63.45 10.42) 
POINT (54.33 10.75) 
POINT (60.4 5.3) 
POINT (58.48 -4.7) 
POINT (59.42 10.5) 
POINT (58.48 -4.7) 
POINT (55.0 8.43) 
POINT (58.13 8.02) 
POINT (68.43 17.4) 
POINT (58.97 5.75) 
POINT (53.87 8.72) 
POINT (53.87 8.72) 
POINT (60.4 5.3) 
POINT (63.58 10.85) 
POINT (43.07 -70.72) 
POINT (58.48 -4.7) 
POINT (53.53 8.58) 
POINT (60.4 5.3) 
POINT (60.4 5.3) 
POINT (41.22 -8.72) 
POINT (60.4 5.3) 
POINT (58.48 -4.7) 
POINT (60.4 5.3) 
POINT (59.42 10.5) 
POINT (60.4 5.3) 
POINT (58.13 8.02) 
POINT (58.97 5.75) 
POINT (58.97 5.75) 
POINT (58.13 8.02) 
POINT (56.45 -3.02) 
POINT (60.33 5.32) 
POINT (58.97 5.75) 
POINT (58.13 8.02) 
POINT (58.13 8.02) 
POINT (54.32 10.13) 
POINT (58.13 8.02) 
POINT (58.97 5.75) 
POINT (58.97 5.75) 
POINT (43.07 -70.72) 
POINT (58.13 8.02) 
POINT (58.13 8.02) 
POINT (58.13 8.02) 
POINT (58.13 8.02) 
POINT (58.13 8.02) 
POINT (56.85 11.82) 
POINT (58.48 -4.7) 
POINT (60.4 5.3) 
POINT (50.58 -2.43) 
POINT (59.42 10.5) 
POINT (60.33 5.32) 
POINT (60.33 5.32) 
POINT (59.42 10.5) 
POINT (59.42 10.5) 
POINT (58.13 8.02) 
POINT (54.88 10.25) 
POINT (58.48 -4.7) 
POINT (68.47 17.4) 
POINT (58.13 8.02) 
POINT (53.83 8.83) 
POINT (58.48 -4.7) 
POINT (68.47 17.43) 
POINT (68.47 17.43) 
POINT (60.4 5.3) 
POINT (58.13 8.02) 
POINT (54.32 10.13) 
POINT (59.42 10.5) 
POINT (54.5 10.1) 
POINT (58.97 5.75) 
POINT (59.42 10.5) 
POINT (63.45 10.42) 
POINT (68.43 17.4) 
POINT (68.43 17.4) 
POINT (63.45 10.42) 
POINT (68.47 17.43) 
POINT (61.53 1.88) 
POINT (60.4 5.3) 
POINT (60.4 5.3) 
POINT (57.65 11.73) 
POINT (60.33 5.32) 
POINT (59.42 10.5) 
POINT (68.43 17.4) 
POINT (58.13 8.02) 
POINT (68.43 17.4) 
POINT (58.13 8.02) 
POINT (68.43 17.4) 
POINT (63.45 10.42) 
POINT (36.13 -5.37) 
POINT (47.27 -2.2) 
POINT (58.48 -4.7) 
POINT (-38.0 -57.53) 
POINT (58.48 -4.7) 
POINT (60.4 5.3) 
POINT (36.13 -5.37) 
POINT (58.97 5.75) 
POINT (68.43 17.4) 
POINT (58.13 8.02) 
POINT (68.43 17.4) 
POINT (53.32 7.23) 
POINT (58.48 -4.7) 
POINT (63.58 10.85) 
POINT (63.45 10.42) 
POINT (50.58 -2.43) 
POINT (60.4 5.3) 
POINT (58.48 -4.7) 
POINT (43.07 -70.73) 
POINT (58.48 -4.7) 
POINT (58.48 -4.7) 
POINT (38.8 -75.12) 
POINT (43.07 -70.72) 
POINT (59.42 10.5) 
POINT (60.33 5.32) 
POINT (43.53 -65.2) 
POINT (58.97 5.75) 
POINT (60.4 5.3) 
POINT (60.4 5.3) 
POINT (60.4 5.3) 
POINT (60.4 5.3) 
POINT (63.45 10.42) 
POINT (58.48 -4.7) 
POINT (39.6 -9.08) 
POINT (68.43 17.4) 
POINT (59.42 10.5) 
POINT (-38.0 -57.53) 
POINT (63.58 10.85) 
POINT (60.4 5.3) 
POINT (68.43 17.4) 
POINT (63.45 10.42) 
POINT (63.45 10.42) 
POINT (68.43 17.4) 