POINT (54.32 10.15) 
POINT (53.53 9.83) 
POINT (54.35 10.15) 
POINT (54.47 9.85) 
POINT (54.32 10.15) 
POINT (54.32 10.13) 
POINT (53.55 9.98) 
POINT (54.4 10.2) 
POINT (53.55 9.98) 
POINT (53.55 9.98) 
POINT (53.55 9.98) 
POINT (53.55 9.98) 
POINT (54.32 10.13) 
POINT (54.47 9.83) 
POINT (54.32 10.13) 
POINT (54.32 10.13) 
POINT (54.82 9.83) 
POINT (54.43 11.65) 
POINT (53.95 10.87) 
POINT (54.43 11.57) 
POINT (53.95 10.87) 
POINT (53.95 10.87) 
POINT (54.32 10.13) 
POINT (54.32 10.13) 
POINT (54.32 10.13) 
POINT (54.32 10.13) 
POINT (54.32 10.13) 
POINT (54.35 10.15) 
POINT (53.55 8.5) 
POINT (54.32 10.13) 
POINT (54.32 10.13) 
POINT (53.95 10.87) 
POINT (53.95 10.87) 
POINT (53.95 10.87) 
POINT (54.1 10.82) 
POINT (53.95 10.87) 
POINT (54.1 10.82) 
POINT (53.95 10.87) 
POINT (53.95 10.87) 
POINT (53.95 10.87) 
POINT (54.32 10.13) 
POINT (54.32 10.13) 
POINT (54.32 10.13) 
POINT (54.43 11.53) 
POINT (53.95 10.87) 
POINT (54.32 10.13) 
POINT (54.32 10.13) 
POINT (54.32 10.13) 
POINT (53.55 10.0) 
POINT (53.95 10.87) 
POINT (53.95 10.87) 
POINT (53.95 10.87) 
POINT (54.32 10.13) 
POINT (54.32 10.13) 
POINT (54.32 9.67) 
POINT (54.32 10.13) 
POINT (54.32 10.13) 
POINT (54.35 10.15) 
POINT (54.32 10.15) 
POINT (54.32 10.13) 
POINT (54.48 9.98) 
POINT (54.35 10.15) 
POINT (54.35 10.15) 
POINT (54.35 10.17) 