POINT (60.4 5.3) "U-1002"
POINT (60.4 5.3) "U-1004"
POINT (60.4 5.3) "U-1005"
POINT (58.48 -4.7) "U-1009"
POINT (58.48 -4.7) "U-1010"
POINT (63.45 10.42) "U-1019"
POINT (60.4 5.3) "U-1022"
POINT (50.62 -2.43) "U-1023"
POINT (60.4 5.3) "U-1052"
POINT (60.4 5.3) "U-1057"
POINT (58.48 -4.7) "U-1058"
POINT (60.4 5.3) "U-1061"
POINT (63.45 10.42) "U-1064"
POINT (54.33 10.75) "U-1102"
POINT (60.4 5.3) "U-1104"
POINT (58.48 -4.7) "U-1105"
POINT (59.42 10.5) "U-1108"
POINT (58.48 -4.7) "U-1109"
POINT (55.0 8.43) "U-1110"
POINT (58.13 8.02) "U-1163"
POINT (68.43 17.4) "U-1165"
POINT (58.97 5.75) "U-1171"
POINT (53.87 8.72) "U-1194"
POINT (53.87 8.72) "U-1198"
POINT (60.4 5.3) "U-1202"
POINT (63.58 10.85) "U-1203"
POINT (43.07 -70.72) "U-1228"
POINT (58.48 -4.7) "U-1231"
POINT (53.53 8.58) "U-1232"
POINT (60.4 5.3) "U-1271"
POINT (60.4 5.3) "U-1272"
POINT (41.22 -8.72) "U-1277"
POINT (60.4 5.3) "U-1301"
POINT (58.48 -4.7) "U-1305"
POINT (60.4 5.3) "U-1307"
POINT (59.42 10.5) "U-170"
POINT (60.4 5.3) "U-218"
POINT (58.13 8.02) "U-2321"
POINT (58.97 5.75) "U-2322"
POINT (58.97 5.75) "U-2324"
POINT (58.13 8.02) "U-2325"
POINT (56.45 -3.02) "U-2326"
POINT (60.33 5.32) "U-2328"
POINT (58.97 5.75) "U-2329"
POINT (58.13 8.02) "U-2334"
POINT (58.13 8.02) "U-2335"
POINT (54.32 10.13) "U-2336"
POINT (58.13 8.02) "U-2337"
POINT (58.97 5.75) "U-2345"
POINT (58.97 5.75) "U-2348"
POINT (43.07 -70.72) "U-234"
POINT (58.13 8.02) "U-2350"
POINT (58.13 8.02) "U-2353"
POINT (58.13 8.02) "U-2354"
POINT (58.13 8.02) "U-2361"
POINT (58.13 8.02) "U-2363"
POINT (56.85 11.82) "U-2365"
POINT (58.48 -4.7) "U-244"
POINT (60.4 5.3) "U-245"
POINT (50.58 -2.43) "U-249"
POINT (59.42 10.5) "U-2502"
POINT (60.33 5.32) "U-2506"
POINT (60.33 5.32) "U-2511"
POINT (59.42 10.5) "U-2513"
POINT (59.42 10.5) "U-2518"
POINT (58.13 8.02) "U-2529"
POINT (54.88 10.25) "U-2538"
POINT (58.48 -4.7) "U-255"
POINT (68.47 17.4) "U-278"
POINT (58.13 8.02) "U-281"
POINT (53.83 8.83) "U-287"
POINT (58.48 -4.7) "U-293"
POINT (68.47 17.43) "U-294"
POINT (68.47 17.43) "U-295"
POINT (60.4 5.3) "U-298"
POINT (58.13 8.02) "U-299"
POINT (54.32 10.13) "U-3008"
POINT (59.42 10.5) "U-3017"
POINT (54.5 10.1) "U-3030"
POINT (58.97 5.75) "U-3035"
POINT (59.42 10.5) "U-3041"
POINT (63.45 10.42) "U-310"
POINT (68.43 17.4) "U-312"
POINT (68.43 17.4) "U-313"
POINT (63.45 10.42) "U-315"
POINT (68.47 17.43) "U-318"
POINT (61.53 1.88) "U-320"
POINT (60.4 5.3) "U-324"
POINT (60.4 5.3) "U-328"
POINT (57.65 11.73) "U-3503"
POINT (60.33 5.32) "U-3514"
POINT (59.42 10.5) "U-3515"
POINT (68.43 17.4) "U-363"
POINT (58.13 8.02) "U-369"
POINT (68.43 17.4) "U-427"
POINT (58.13 8.02) "U-4706"
POINT (68.43 17.4) "U-481"
POINT (63.45 10.42) "U-483"
POINT (36.13 -5.37) "U-485"
POINT (47.27 -2.2) "U-510"
POINT (58.48 -4.7) "U-516"
POINT (-38.0 -57.53) "U-530"
POINT (58.48 -4.7) "U-532"
POINT (60.4 5.3) "U-539"
POINT (36.13 -5.37) "U-541"
POINT (58.97 5.75) "U-637"
POINT (68.43 17.4) "U-668"
POINT (58.13 8.02) "U-712"
POINT (68.43 17.4) "U-716"
POINT (53.32 7.23) "U-739"
POINT (58.48 -4.7) "U-764"
POINT (63.58 10.85) "U-773"
POINT (63.45 10.42) "U-775"
POINT (50.58 -2.43) "U-776"
POINT (60.4 5.3) "U-778"
POINT (58.48 -4.7) "U-802"
POINT (43.07 -70.73) "U-805"
POINT (58.48 -4.7) "U-825"
POINT (58.48 -4.7) "U-826"
POINT (38.8 -75.12) "U-858"
POINT (43.07 -70.72) "U-873"
POINT (59.42 10.5) "U-874"
POINT (60.33 5.32) "U-875"
POINT (43.53 -65.2) "U-889"
POINT (58.97 5.75) "U-901"
POINT (60.4 5.3) "U-907"
POINT (60.4 5.3) "U-926"
POINT (60.4 5.3) "U-928"
POINT (60.4 5.3) "U-930"
POINT (63.45 10.42) "U-953"
POINT (58.48 -4.7) "U-956"
POINT (39.6 -9.08) "U-963"
POINT (68.43 17.4) "U-968"
POINT (59.42 10.5) "U-975"
POINT (-38.0 -57.53) "U-977"
POINT (63.58 10.85) "U-978"
POINT (60.4 5.3) "U-991"
POINT (68.43 17.4) "U-992"
POINT (63.45 10.42) "U-994"
POINT (63.45 10.42) "U-995"
POINT (68.43 17.4) "U-997"