com\ravineteam\uboatnetparser\xml\XmlParser.class
com\ravineteam\uboatnetparser\parsers\TagFeeder.class
com\ravineteam\uboatnetparser\utils\DateConverter.class
com\ravineteam\uboatnetparser\parsers\UboatParser.class
com\ravineteam\uboatnetparser\data\AssignedCommander.class
